{
    "runid": 134,
    "result": {
        "records": [
            {
                "cumulative_pfizer_doses": "1221498",
                "cumulative_total_doses": "2378416",
                "cumulative_fully_vaccinated": "803137",
                "pfizer_doses": "30760",
                "california_flag": "California",
                "moderna_doses": "24312",
                "rank": 0.0573088,
                "at_least_one_dose": "33415",
                "county": "Los Angeles",
                "partially_vaccinated": "33390",
                "total_doses": "55081",
                "fully_vaccinated": "21560",
                "jj_doses": "9",
                "cumulative_jj_doses": "11",
                "cumulative_at_least_one_dose": "1570438",
                "_id": 2511,
                "administered_date": "2021-03-01",
                "total_partially_vaccinated": "767301",
                "cumulative_moderna_doses": "1156907"
            },
            {
                "cumulative_pfizer_doses": "1252486",
                "cumulative_total_doses": "2448448",
                "cumulative_fully_vaccinated": "830224",
                "pfizer_doses": "30988",
                "california_flag": "California",
                "moderna_doses": "39043",
                "rank": 0.0573088,
                "at_least_one_dose": "42848",
                "county": "Los Angeles",
                "partially_vaccinated": "42838",
                "total_doses": "70032",
                "fully_vaccinated": "27087",
                "jj_doses": "1",
                "cumulative_jj_doses": "12",
                "cumulative_at_least_one_dose": "1613286",
                "_id": 2512,
                "administered_date": "2021-03-02",
                "total_partially_vaccinated": "783062",
                "cumulative_moderna_doses": "1195950"
            },
            {
                "cumulative_pfizer_doses": "1292790",
                "cumulative_total_doses": "2529031",
                "cumulative_fully_vaccinated": "860164",
                "pfizer_doses": "40304",
                "california_flag": "California",
                "moderna_doses": "40274",
                "rank": 0.0573088,
                "at_least_one_dose": "50530",
                "county": "Los Angeles",
                "partially_vaccinated": "50502",
                "total_doses": "80583",
                "fully_vaccinated": "29940",
                "jj_doses": "5",
                "cumulative_jj_doses": "17",
                "cumulative_at_least_one_dose": "1663816",
                "_id": 2513,
                "administered_date": "2021-03-03",
                "total_partially_vaccinated": "803652",
                "cumulative_moderna_doses": "1236224"
            },
            {
                "cumulative_pfizer_doses": "1338272",
                "cumulative_total_doses": "2617187",
                "cumulative_fully_vaccinated": "892570",
                "pfizer_doses": "45482",
                "california_flag": "California",
                "moderna_doses": "42666",
                "rank": 0.0573088,
                "at_least_one_dose": "55616",
                "county": "Los Angeles",
                "partially_vaccinated": "55595",
                "total_doses": "88156",
                "fully_vaccinated": "32406",
                "jj_doses": "8",
                "cumulative_jj_doses": "25",
                "cumulative_at_least_one_dose": "1719432",
                "_id": 2514,
                "administered_date": "2021-03-04",
                "total_partially_vaccinated": "826862",
                "cumulative_moderna_doses": "1278890"
            },
            {
                "cumulative_pfizer_doses": "1380337",
                "cumulative_total_doses": "2703709",
                "cumulative_fully_vaccinated": "921200",
                "pfizer_doses": "42065",
                "california_flag": "California",
                "moderna_doses": "44437",
                "rank": 0.0573088,
                "at_least_one_dose": "57783",
                "county": "Los Angeles",
                "partially_vaccinated": "57733",
                "total_doses": "86522",
                "fully_vaccinated": "28630",
                "jj_doses": "20",
                "cumulative_jj_doses": "45",
                "cumulative_at_least_one_dose": "1777215",
                "_id": 2515,
                "administered_date": "2021-03-05",
                "total_partially_vaccinated": "856015",
                "cumulative_moderna_doses": "1323327"
            },
            {
                "cumulative_pfizer_doses": "1412854",
                "cumulative_total_doses": "2768696",
                "cumulative_fully_vaccinated": "944219",
                "pfizer_doses": "32517",
                "california_flag": "California",
                "moderna_doses": "30671",
                "rank": 0.0573088,
                "at_least_one_dose": "43658",
                "county": "Los Angeles",
                "partially_vaccinated": "41845",
                "total_doses": "64987",
                "fully_vaccinated": "23019",
                "jj_doses": "1799",
                "cumulative_jj_doses": "1844",
                "cumulative_at_least_one_dose": "1820873",
                "_id": 2516,
                "administered_date": "2021-03-06",
                "total_partially_vaccinated": "876654",
                "cumulative_moderna_doses": "1353998"
            },
            {
                "cumulative_pfizer_doses": "1432043",
                "cumulative_total_doses": "2794134",
                "cumulative_fully_vaccinated": "950012",
                "pfizer_doses": "19189",
                "california_flag": "California",
                "moderna_doses": "5469",
                "rank": 0.0573088,
                "at_least_one_dose": "20411",
                "county": "Los Angeles",
                "partially_vaccinated": "19629",
                "total_doses": "25438",
                "fully_vaccinated": "5793",
                "jj_doses": "780",
                "cumulative_jj_doses": "2624",
                "cumulative_at_least_one_dose": "1841284",
                "_id": 2517,
                "administered_date": "2021-03-07",
                "total_partially_vaccinated": "891272",
                "cumulative_moderna_doses": "1359467"
            },
            {
                "cumulative_pfizer_doses": "1458479",
                "cumulative_total_doses": "2845041",
                "cumulative_fully_vaccinated": "962523",
                "pfizer_doses": "26436",
                "california_flag": "California",
                "moderna_doses": "22538",
                "rank": 0.0573088,
                "at_least_one_dose": "40248",
                "county": "Los Angeles",
                "partially_vaccinated": "38313",
                "total_doses": "50907",
                "fully_vaccinated": "12511",
                "jj_doses": "1933",
                "cumulative_jj_doses": "4557",
                "cumulative_at_least_one_dose": "1881532",
                "_id": 2518,
                "administered_date": "2021-03-08",
                "total_partially_vaccinated": "919009",
                "cumulative_moderna_doses": "1382005"
            },
            {
                "cumulative_pfizer_doses": "1484052",
                "cumulative_total_doses": "2912886",
                "cumulative_fully_vaccinated": "989630",
                "pfizer_doses": "25573",
                "california_flag": "California",
                "moderna_doses": "39008",
                "rank": 0.0573088,
                "at_least_one_dose": "43874",
                "county": "Los Angeles",
                "partially_vaccinated": "40610",
                "total_doses": "67845",
                "fully_vaccinated": "27107",
                "jj_doses": "3264",
                "cumulative_jj_doses": "7821",
                "cumulative_at_least_one_dose": "1925406",
                "_id": 2519,
                "administered_date": "2021-03-09",
                "total_partially_vaccinated": "935776",
                "cumulative_moderna_doses": "1421013"
            },
            {
                "cumulative_pfizer_doses": "1520928",
                "cumulative_total_doses": "2991061",
                "cumulative_fully_vaccinated": "1018550",
                "pfizer_doses": "36876",
                "california_flag": "California",
                "moderna_doses": "36682",
                "rank": 0.0573088,
                "at_least_one_dose": "53718",
                "county": "Los Angeles",
                "partially_vaccinated": "49127",
                "total_doses": "78175",
                "fully_vaccinated": "28920",
                "jj_doses": "4617",
                "cumulative_jj_doses": "12438",
                "cumulative_at_least_one_dose": "1979124",
                "_id": 2520,
                "administered_date": "2021-03-10",
                "total_partially_vaccinated": "960574",
                "cumulative_moderna_doses": "1457695"
            },
            {
                "cumulative_pfizer_doses": "1565027",
                "cumulative_total_doses": "3081680",
                "cumulative_fully_vaccinated": "1055732",
                "pfizer_doses": "44099",
                "california_flag": "California",
                "moderna_doses": "40316",
                "rank": 0.0573088,
                "at_least_one_dose": "59478",
                "county": "Los Angeles",
                "partially_vaccinated": "53297",
                "total_doses": "90619",
                "fully_vaccinated": "37182",
                "jj_doses": "6204",
                "cumulative_jj_doses": "18642",
                "cumulative_at_least_one_dose": "2038602",
                "_id": 2521,
                "administered_date": "2021-03-11",
                "total_partially_vaccinated": "982870",
                "cumulative_moderna_doses": "1498011"
            },
            {
                "cumulative_pfizer_doses": "1607395",
                "cumulative_total_doses": "3177032",
                "cumulative_fully_vaccinated": "1095393",
                "pfizer_doses": "42368",
                "california_flag": "California",
                "moderna_doses": "39416",
                "rank": 0.0573088,
                "at_least_one_dose": "69082",
                "county": "Los Angeles",
                "partially_vaccinated": "55543",
                "total_doses": "95352",
                "fully_vaccinated": "39661",
                "jj_doses": "13568",
                "cumulative_jj_doses": "32210",
                "cumulative_at_least_one_dose": "2107684",
                "_id": 2522,
                "administered_date": "2021-03-12",
                "total_partially_vaccinated": "1012291",
                "cumulative_moderna_doses": "1537427"
            },
            {
                "cumulative_pfizer_doses": "1640766",
                "cumulative_total_doses": "3249107",
                "cumulative_fully_vaccinated": "1124376",
                "pfizer_doses": "33371",
                "california_flag": "California",
                "moderna_doses": "26877",
                "rank": 0.0573088,
                "at_least_one_dose": "54811",
                "county": "Los Angeles",
                "partially_vaccinated": "43001",
                "total_doses": "72075",
                "fully_vaccinated": "28983",
                "jj_doses": "11827",
                "cumulative_jj_doses": "44037",
                "cumulative_at_least_one_dose": "2162495",
                "_id": 2523,
                "administered_date": "2021-03-13",
                "total_partially_vaccinated": "1038119",
                "cumulative_moderna_doses": "1564304"
            },
            {
                "cumulative_pfizer_doses": "1666015",
                "cumulative_total_doses": "3286849",
                "cumulative_fully_vaccinated": "1136724",
                "pfizer_doses": "25249",
                "california_flag": "California",
                "moderna_doses": "10087",
                "rank": 0.0573088,
                "at_least_one_dose": "27741",
                "county": "Los Angeles",
                "partially_vaccinated": "25345",
                "total_doses": "37742",
                "fully_vaccinated": "12348",
                "jj_doses": "2406",
                "cumulative_jj_doses": "46443",
                "cumulative_at_least_one_dose": "2190236",
                "_id": 2524,
                "administered_date": "2021-03-14",
                "total_partially_vaccinated": "1053512",
                "cumulative_moderna_doses": "1574391"
            },
            {
                "cumulative_pfizer_doses": "1700986",
                "cumulative_total_doses": "3359506",
                "cumulative_fully_vaccinated": "1164759",
                "pfizer_doses": "34971",
                "california_flag": "California",
                "moderna_doses": "32384",
                "rank": 0.0573088,
                "at_least_one_dose": "49777",
                "county": "Los Angeles",
                "partially_vaccinated": "44478",
                "total_doses": "72657",
                "fully_vaccinated": "28035",
                "jj_doses": "5302",
                "cumulative_jj_doses": "51745",
                "cumulative_at_least_one_dose": "2240013",
                "_id": 2525,
                "administered_date": "2021-03-15",
                "total_partially_vaccinated": "1075254",
                "cumulative_moderna_doses": "1606775"
            },
            {
                "cumulative_pfizer_doses": "1742835",
                "cumulative_total_doses": "3456728",
                "cumulative_fully_vaccinated": "1198433",
                "pfizer_doses": "41849",
                "california_flag": "California",
                "moderna_doses": "49665",
                "rank": 0.0573088,
                "at_least_one_dose": "69083",
                "county": "Los Angeles",
                "partially_vaccinated": "63390",
                "total_doses": "97222",
                "fully_vaccinated": "33674",
                "jj_doses": "5708",
                "cumulative_jj_doses": "57453",
                "cumulative_at_least_one_dose": "2309096",
                "_id": 2526,
                "administered_date": "2021-03-16",
                "total_partially_vaccinated": "1110663",
                "cumulative_moderna_doses": "1656440"
            },
            {
                "cumulative_pfizer_doses": "1784942",
                "cumulative_total_doses": "3549752",
                "cumulative_fully_vaccinated": "1228905",
                "pfizer_doses": "42107",
                "california_flag": "California",
                "moderna_doses": "42987",
                "rank": 0.0573088,
                "at_least_one_dose": "70309",
                "county": "Los Angeles",
                "partially_vaccinated": "62401",
                "total_doses": "93024",
                "fully_vaccinated": "30472",
                "jj_doses": "7930",
                "cumulative_jj_doses": "65383",
                "cumulative_at_least_one_dose": "2379405",
                "_id": 2527,
                "administered_date": "2021-03-17",
                "total_partially_vaccinated": "1150500",
                "cumulative_moderna_doses": "1699427"
            },
            {
                "cumulative_pfizer_doses": "1831038",
                "cumulative_total_doses": "3646790",
                "cumulative_fully_vaccinated": "1264029",
                "pfizer_doses": "46096",
                "california_flag": "California",
                "moderna_doses": "45810",
                "rank": 0.0573088,
                "at_least_one_dose": "66804",
                "county": "Los Angeles",
                "partially_vaccinated": "61680",
                "total_doses": "97038",
                "fully_vaccinated": "35124",
                "jj_doses": "5132",
                "cumulative_jj_doses": "70515",
                "cumulative_at_least_one_dose": "2446209",
                "_id": 2528,
                "administered_date": "2021-03-18",
                "total_partially_vaccinated": "1182180",
                "cumulative_moderna_doses": "1745237"
            },
            {
                "cumulative_pfizer_doses": "1885282",
                "cumulative_total_doses": "3751008",
                "cumulative_fully_vaccinated": "1303247",
                "pfizer_doses": "54244",
                "california_flag": "California",
                "moderna_doses": "45405",
                "rank": 0.0573088,
                "at_least_one_dose": "69348",
                "county": "Los Angeles",
                "partially_vaccinated": "64775",
                "total_doses": "104218",
                "fully_vaccinated": "39218",
                "jj_doses": "4569",
                "cumulative_jj_doses": "75084",
                "cumulative_at_least_one_dose": "2515557",
                "_id": 2529,
                "administered_date": "2021-03-19",
                "total_partially_vaccinated": "1212310",
                "cumulative_moderna_doses": "1790642"
            },
            {
                "cumulative_pfizer_doses": "1921195",
                "cumulative_total_doses": "3824797",
                "cumulative_fully_vaccinated": "1325546",
                "pfizer_doses": "35913",
                "california_flag": "California",
                "moderna_doses": "33633",
                "rank": 0.0573088,
                "at_least_one_dose": "55584",
                "county": "Los Angeles",
                "partially_vaccinated": "51346",
                "total_doses": "73789",
                "fully_vaccinated": "22299",
                "jj_doses": "4243",
                "cumulative_jj_doses": "79327",
                "cumulative_at_least_one_dose": "2571141",
                "_id": 2530,
                "administered_date": "2021-03-20",
                "total_partially_vaccinated": "1245595",
                "cumulative_moderna_doses": "1824275"
            },
            {
                "cumulative_pfizer_doses": "1945840",
                "cumulative_total_doses": "3858150",
                "cumulative_fully_vaccinated": "1337127",
                "pfizer_doses": "24645",
                "california_flag": "California",
                "moderna_doses": "7868",
                "rank": 0.0573088,
                "at_least_one_dose": "22539",
                "county": "Los Angeles",
                "partially_vaccinated": "21700",
                "total_doses": "33353",
                "fully_vaccinated": "11581",
                "jj_doses": "840",
                "cumulative_jj_doses": "80167",
                "cumulative_at_least_one_dose": "2593680",
                "_id": 2531,
                "administered_date": "2021-03-21",
                "total_partially_vaccinated": "1256553",
                "cumulative_moderna_doses": "1832143"
            },
            {
                "cumulative_pfizer_doses": "1985796",
                "cumulative_total_doses": "3925464",
                "cumulative_fully_vaccinated": "1356210",
                "pfizer_doses": "39956",
                "california_flag": "California",
                "moderna_doses": "25408",
                "rank": 0.0573088,
                "at_least_one_dose": "49997",
                "county": "Los Angeles",
                "partially_vaccinated": "48046",
                "total_doses": "67314",
                "fully_vaccinated": "19083",
                "jj_doses": "1950",
                "cumulative_jj_doses": "82117",
                "cumulative_at_least_one_dose": "2643677",
                "_id": 2532,
                "administered_date": "2021-03-22",
                "total_partially_vaccinated": "1287467",
                "cumulative_moderna_doses": "1857551"
            },
            {
                "cumulative_pfizer_doses": "2035778",
                "cumulative_total_doses": "4017819",
                "cumulative_fully_vaccinated": "1386669",
                "pfizer_doses": "49982",
                "california_flag": "California",
                "moderna_doses": "39470",
                "rank": 0.0573088,
                "at_least_one_dose": "64599",
                "county": "Los Angeles",
                "partially_vaccinated": "61698",
                "total_doses": "92355",
                "fully_vaccinated": "30459",
                "jj_doses": "2903",
                "cumulative_jj_doses": "85020",
                "cumulative_at_least_one_dose": "2708276",
                "_id": 2533,
                "administered_date": "2021-03-23",
                "total_partially_vaccinated": "1321607",
                "cumulative_moderna_doses": "1897021"
            },
            {
                "cumulative_pfizer_doses": "2089540",
                "cumulative_total_doses": "4118725",
                "cumulative_fully_vaccinated": "1427310",
                "pfizer_doses": "53762",
                "california_flag": "California",
                "moderna_doses": "44301",
                "rank": 0.0573088,
                "at_least_one_dose": "62857",
                "county": "Los Angeles",
                "partially_vaccinated": "60019",
                "total_doses": "100906",
                "fully_vaccinated": "40641",
                "jj_doses": "2843",
                "cumulative_jj_doses": "87863",
                "cumulative_at_least_one_dose": "2771133",
                "_id": 2534,
                "administered_date": "2021-03-24",
                "total_partially_vaccinated": "1343823",
                "cumulative_moderna_doses": "1941322"
            }
        ],
        "limit": 100,
        "_links": {
            "start": "/api/3/action/datastore_search?q=angeles&resource_id=130d7ba2-b6eb-438d-a412-741bde207e1c",
            "next": "/api/3/action/datastore_search?q=angeles&offset=100&resource_id=130d7ba2-b6eb-438d-a412-741bde207e1c"
        },
        "total": 117
    }
}